D:\Zahar\task-07\src\main\java\com\epam\rd\java\basic\task7\Demo.java
D:\Zahar\task-07\src\main\java\com\epam\rd\java\basic\task7\db\DBException.java
D:\Zahar\task-07\src\main\java\com\epam\rd\java\basic\task7\db\entity\User.java
D:\Zahar\task-07\src\main\java\com\epam\rd\java\basic\task7\db\DBManager.java
D:\Zahar\task-07\src\main\java\com\epam\rd\java\basic\task7\db\entity\Team.java
